[gd_scene load_steps=5 format=2]

[ext_resource path="res://textures/load_num_icon.png" type="Texture" id=1]
[ext_resource path="res://scripts/load_num.gd" type="Script" id=2]

[sub_resource type="DynamicFontData" id=1]

hinting = 2
font_path = "res://fonts/Bahnhof Outline Regular.otf"

[sub_resource type="DynamicFont" id=2]

size = 110
use_mipmaps = false
use_filter = false
font_data = SubResource( 1 )
_sections_unfolded = [ "Extra Spacing", "Font", "Settings" ]

[node name="load_num_icon" type="Sprite"]

scale = Vector2( 0.34375, 0.34375 )
texture = ExtResource( 1 )
script = ExtResource( 2 )
_sections_unfolded = [ "Transform" ]
id = 0
to_save = true
fExist = false

[node name="Label" type="Label" parent="." index="0"]

anchor_left = 0.0
anchor_top = 0.0
anchor_right = 0.0
anchor_bottom = 0.0
margin_left = -63.0
margin_top = -41.0
margin_right = 54.0
margin_bottom = 61.0
rect_pivot_offset = Vector2( 0, 0 )
rect_clip_content = false
mouse_filter = 2
mouse_default_cursor_shape = 0
size_flags_horizontal = 1
size_flags_vertical = 4
custom_fonts/font = SubResource( 2 )
text = "1"
align = 1
valign = 1
percent_visible = 1.0
lines_skipped = 0
max_lines_visible = -1
_sections_unfolded = [ "Theme", "Visibility", "custom_colors", "custom_constants", "custom_fonts", "custom_styles" ]

[node name="Button" type="Button" parent="." index="1"]

self_modulate = Color( 1, 1, 1, 0 )
anchor_left = 0.0
anchor_top = 0.0
anchor_right = 0.0
anchor_bottom = 0.0
margin_left = -59.0
margin_top = -52.0
margin_right = 60.0
margin_bottom = 53.0
rect_pivot_offset = Vector2( 0, 0 )
rect_clip_content = false
focus_mode = 2
mouse_filter = 0
mouse_default_cursor_shape = 0
size_flags_horizontal = 1
size_flags_vertical = 1
toggle_mode = false
enabled_focus_mode = 2
shortcut = null
group = null
flat = false
align = 1
_sections_unfolded = [ "Visibility" ]

[connection signal="pressed" from="Button" to="." method="_on_Button_pressed"]


