<?xml version="1.0" encoding="UTF-8" standalone="no"?>
<!-- Created with Inkscape (http://www.inkscape.org/) -->

<svg
   xmlns:dc="http://purl.org/dc/elements/1.1/"
   xmlns:cc="http://creativecommons.org/ns#"
   xmlns:rdf="http://www.w3.org/1999/02/22-rdf-syntax-ns#"
   xmlns:svg="http://www.w3.org/2000/svg"
   xmlns="http://www.w3.org/2000/svg"
   xmlns:sodipodi="http://sodipodi.sourceforge.net/DTD/sodipodi-0.dtd"
   xmlns:inkscape="http://www.inkscape.org/namespaces/inkscape"
   width="210mm"
   height="297mm"
   viewBox="0 0 210 297"
   version="1.1"
   id="svg8"
   inkscape:version="0.92.3 (unknown)"
   sodipodi:docname="nu.svg">
  <defs
     id="defs2" />
  <sodipodi:namedview
     id="base"
     pagecolor="#4d4d4d"
     bordercolor="#666666"
     borderopacity="1.0"
     inkscape:pageopacity="0"
     inkscape:pageshadow="2"
     inkscape:zoom="1.4"
     inkscape:cx="-1016.9581"
     inkscape:cy="262.46533"
     inkscape:document-units="mm"
     inkscape:current-layer="layer1"
     showgrid="false"
     inkscape:snap-global="false"
     showguides="false"
     inkscape:window-width="1920"
     inkscape:window-height="1055"
     inkscape:window-x="0"
     inkscape:window-y="0"
     inkscape:window-maximized="1" />
  <metadata
     id="metadata5">
    <rdf:RDF>
      <cc:Work
         rdf:about="">
        <dc:format>image/svg+xml</dc:format>
        <dc:type
           rdf:resource="http://purl.org/dc/dcmitype/StillImage" />
        <dc:title></dc:title>
      </cc:Work>
    </rdf:RDF>
  </metadata>
  <g
     inkscape:label="Layer 1"
     inkscape:groupmode="layer"
     id="layer1">
    <rect
       transform="rotate(45)"
       ry="0"
       y="395.67484"
       x="-60.542412"
       height="8.0653563"
       width="8.0653563"
       id="rect832"
       style="opacity:0.04200003;vector-effect:none;fill:#ffffff;fill-opacity:1;stroke:none;stroke-width:0.54236794;stroke-linecap:butt;stroke-linejoin:miter;stroke-miterlimit:4;stroke-dasharray:none;stroke-dashoffset:0;stroke-opacity:0.21100919" />
    <rect
       style="opacity:1;vector-effect:none;fill:#333333;fill-opacity:1;stroke:none;stroke-width:0.47967696;stroke-linecap:butt;stroke-linejoin:miter;stroke-miterlimit:4;stroke-dasharray:none;stroke-dashoffset:0;stroke-opacity:0.21100919"
       id="rect826"
       width="7.133101"
       height="7.133101"
       x="-36.381378"
       y="394.8934"
       ry="0"
       transform="matrix(0.74800178,0.66369672,-0.74800178,0.66369672,0,0)" />
    <text
       xml:space="preserve"
       style="font-style:normal;font-variant:normal;font-weight:normal;font-stretch:normal;font-size:9.72653008px;line-height:2.5329504px;font-family:sans-serif;-inkscape-font-specification:sans-serif;font-variant-ligatures:normal;font-variant-position:normal;font-variant-caps:normal;font-variant-numeric:normal;font-variant-alternates:normal;font-feature-settings:normal;text-indent:0;text-align:center;text-decoration:none;text-decoration-line:none;text-decoration-style:solid;text-decoration-color:#000000;letter-spacing:0px;word-spacing:0px;text-transform:none;writing-mode:lr-tb;direction:ltr;text-orientation:mixed;dominant-baseline:auto;baseline-shift:baseline;text-anchor:middle;white-space:normal;shape-padding:0;opacity:1;vector-effect:none;fill:#ffffff;fill-opacity:1;stroke:none;stroke-width:0.10131802px;stroke-linecap:butt;stroke-linejoin:miter;stroke-miterlimit:4;stroke-dasharray:none;stroke-dashoffset:0;stroke-opacity:1;"
       x="-322.59241"
       y="246.22281"
       id="text830"><tspan
         sodipodi:role="line"
         id="tspan828"
         x="-322.59241"
         y="246.22281"
         style="font-style:normal;font-variant:normal;font-weight:normal;font-stretch:normal;font-family:'Bahnhof Outline';-inkscape-font-specification:'Bahnhof Outline';fill:#ffffff;stroke-width:0.10131802px">0</tspan></text>
    <rect
       style="opacity:0.04200003;vector-effect:none;fill:#ffffff;fill-opacity:1;stroke:none;stroke-width:0.54236794;stroke-linecap:butt;stroke-linejoin:miter;stroke-miterlimit:4;stroke-dasharray:none;stroke-dashoffset:0;stroke-opacity:0.21100919"
       id="rect859"
       width="8.0653563"
       height="8.0653563"
       x="-69.312309"
       y="386.90494"
       ry="0"
       transform="rotate(45)" />
    <rect
       transform="matrix(0.74800178,0.66369672,-0.74800178,0.66369672,0,0)"
       ry="0"
       y="385.5499"
       x="-45.724884"
       height="7.133101"
       width="7.133101"
       id="rect861"
       style="opacity:1;vector-effect:none;fill:#333333;fill-opacity:1;stroke:none;stroke-width:0.47967696;stroke-linecap:butt;stroke-linejoin:miter;stroke-miterlimit:4;stroke-dasharray:none;stroke-dashoffset:0;stroke-opacity:0.21100919" />
    <text
       id="text865"
       y="233.8203"
       x="-322.59241"
       style="font-style:normal;font-variant:normal;font-weight:normal;font-stretch:normal;font-size:9.72653008px;line-height:2.5329504px;font-family:sans-serif;-inkscape-font-specification:sans-serif;font-variant-ligatures:normal;font-variant-position:normal;font-variant-caps:normal;font-variant-numeric:normal;font-variant-alternates:normal;font-feature-settings:normal;text-indent:0;text-align:center;text-decoration:none;text-decoration-line:none;text-decoration-style:solid;text-decoration-color:#000000;letter-spacing:0px;word-spacing:0px;text-transform:none;writing-mode:lr-tb;direction:ltr;text-orientation:mixed;dominant-baseline:auto;baseline-shift:baseline;text-anchor:middle;white-space:normal;shape-padding:0;opacity:1;vector-effect:none;fill:#ffffff;fill-opacity:1;stroke:none;stroke-width:0.10131802px;stroke-linecap:butt;stroke-linejoin:miter;stroke-miterlimit:4;stroke-dasharray:none;stroke-dashoffset:0;stroke-opacity:1;"
       xml:space="preserve"><tspan
         style="font-style:normal;font-variant:normal;font-weight:normal;font-stretch:normal;font-family:'Bahnhof Outline';-inkscape-font-specification:'Bahnhof Outline';fill:#ffffff;stroke-width:0.10131802px"
         y="233.8203"
         x="-322.59241"
         id="tspan863"
         sodipodi:role="line">1</tspan></text>
    <rect
       transform="rotate(45)"
       ry="0"
       y="378.13504"
       x="-78.082207"
       height="8.0653563"
       width="8.0653563"
       id="rect869"
       style="opacity:0.04200003;vector-effect:none;fill:#ffffff;fill-opacity:1;stroke:none;stroke-width:0.54236794;stroke-linecap:butt;stroke-linejoin:miter;stroke-miterlimit:4;stroke-dasharray:none;stroke-dashoffset:0;stroke-opacity:0.21100919" />
    <rect
       style="opacity:1;vector-effect:none;fill:#333333;fill-opacity:1;stroke:none;stroke-width:0.47967696;stroke-linecap:butt;stroke-linejoin:miter;stroke-miterlimit:4;stroke-dasharray:none;stroke-dashoffset:0;stroke-opacity:0.21100919"
       id="rect871"
       width="7.133101"
       height="7.133101"
       x="-55.06839"
       y="376.20639"
       ry="0"
       transform="matrix(0.74800178,0.66369672,-0.74800178,0.66369672,0,0)" />
    <text
       xml:space="preserve"
       style="font-style:normal;font-variant:normal;font-weight:normal;font-stretch:normal;font-size:9.72653008px;line-height:2.5329504px;font-family:sans-serif;-inkscape-font-specification:sans-serif;font-variant-ligatures:normal;font-variant-position:normal;font-variant-caps:normal;font-variant-numeric:normal;font-variant-alternates:normal;font-feature-settings:normal;text-indent:0;text-align:center;text-decoration:none;text-decoration-line:none;text-decoration-style:solid;text-decoration-color:#000000;letter-spacing:0px;word-spacing:0px;text-transform:none;writing-mode:lr-tb;direction:ltr;text-orientation:mixed;dominant-baseline:auto;baseline-shift:baseline;text-anchor:middle;white-space:normal;shape-padding:0;opacity:1;vector-effect:none;fill:#ffffff;fill-opacity:1;stroke:none;stroke-width:0.10131802px;stroke-linecap:butt;stroke-linejoin:miter;stroke-miterlimit:4;stroke-dasharray:none;stroke-dashoffset:0;stroke-opacity:1;"
       x="-322.59241"
       y="221.4178"
       id="text875"><tspan
         sodipodi:role="line"
         id="tspan873"
         x="-322.59241"
         y="221.4178"
         style="font-style:normal;font-variant:normal;font-weight:normal;font-stretch:normal;font-family:'Bahnhof Outline';-inkscape-font-specification:'Bahnhof Outline';fill:#ffffff;stroke-width:0.10131802px">2</tspan></text>
    <rect
       style="opacity:0.04200003;vector-effect:none;fill:#ffffff;fill-opacity:1;stroke:none;stroke-width:0.54236794;stroke-linecap:butt;stroke-linejoin:miter;stroke-miterlimit:4;stroke-dasharray:none;stroke-dashoffset:0;stroke-opacity:0.21100919"
       id="rect879"
       width="8.0653563"
       height="8.0653563"
       x="-86.852104"
       y="369.36514"
       ry="0"
       transform="rotate(45)" />
    <rect
       transform="matrix(0.74800178,0.66369672,-0.74800178,0.66369672,0,0)"
       ry="0"
       y="366.86288"
       x="-64.411896"
       height="7.133101"
       width="7.133101"
       id="rect881"
       style="opacity:1;vector-effect:none;fill:#333333;fill-opacity:1;stroke:none;stroke-width:0.47967696;stroke-linecap:butt;stroke-linejoin:miter;stroke-miterlimit:4;stroke-dasharray:none;stroke-dashoffset:0;stroke-opacity:0.21100919" />
    <text
       id="text885"
       y="209.01529"
       x="-322.59241"
       style="font-style:normal;font-variant:normal;font-weight:normal;font-stretch:normal;font-size:9.72653008px;line-height:2.5329504px;font-family:sans-serif;-inkscape-font-specification:sans-serif;font-variant-ligatures:normal;font-variant-position:normal;font-variant-caps:normal;font-variant-numeric:normal;font-variant-alternates:normal;font-feature-settings:normal;text-indent:0;text-align:center;text-decoration:none;text-decoration-line:none;text-decoration-style:solid;text-decoration-color:#000000;letter-spacing:0px;word-spacing:0px;text-transform:none;writing-mode:lr-tb;direction:ltr;text-orientation:mixed;dominant-baseline:auto;baseline-shift:baseline;text-anchor:middle;white-space:normal;shape-padding:0;opacity:1;vector-effect:none;fill:#ffffff;fill-opacity:1;stroke:none;stroke-width:0.10131802px;stroke-linecap:butt;stroke-linejoin:miter;stroke-miterlimit:4;stroke-dasharray:none;stroke-dashoffset:0;stroke-opacity:1;"
       xml:space="preserve"><tspan
         style="font-style:normal;font-variant:normal;font-weight:normal;font-stretch:normal;font-family:'Ashley Script MT Std';-inkscape-font-specification:'Ashley Script MT Std';fill:#ffffff;stroke-width:0.10131802px;"
         y="209.01529"
         x="-322.59241"
         id="tspan883"
         sodipodi:role="line">3</tspan></text>
    <rect
       transform="rotate(45)"
       ry="0"
       y="360.59525"
       x="-95.622002"
       height="8.0653563"
       width="8.0653563"
       id="rect889"
       style="opacity:0.04200003;vector-effect:none;fill:#ffffff;fill-opacity:1;stroke:none;stroke-width:0.54236794;stroke-linecap:butt;stroke-linejoin:miter;stroke-miterlimit:4;stroke-dasharray:none;stroke-dashoffset:0;stroke-opacity:0.21100919" />
    <rect
       style="opacity:1;vector-effect:none;fill:#333333;fill-opacity:1;stroke:none;stroke-width:0.47967696;stroke-linecap:butt;stroke-linejoin:miter;stroke-miterlimit:4;stroke-dasharray:none;stroke-dashoffset:0;stroke-opacity:0.21100919"
       id="rect891"
       width="7.133101"
       height="7.133101"
       x="-73.755394"
       y="357.51938"
       ry="0"
       transform="matrix(0.74800178,0.66369672,-0.74800178,0.66369672,0,0)" />
    <text
       xml:space="preserve"
       style="font-style:normal;font-variant:normal;font-weight:normal;font-stretch:normal;font-size:9.72653008px;line-height:2.5329504px;font-family:sans-serif;-inkscape-font-specification:sans-serif;font-variant-ligatures:normal;font-variant-position:normal;font-variant-caps:normal;font-variant-numeric:normal;font-variant-alternates:normal;font-feature-settings:normal;text-indent:0;text-align:center;text-decoration:none;text-decoration-line:none;text-decoration-style:solid;text-decoration-color:#000000;letter-spacing:0px;word-spacing:0px;text-transform:none;writing-mode:lr-tb;direction:ltr;text-orientation:mixed;dominant-baseline:auto;baseline-shift:baseline;text-anchor:middle;white-space:normal;shape-padding:0;opacity:1;vector-effect:none;fill:#ffffff;fill-opacity:1;stroke:none;stroke-width:0.10131802px;stroke-linecap:butt;stroke-linejoin:miter;stroke-miterlimit:4;stroke-dasharray:none;stroke-dashoffset:0;stroke-opacity:1;"
       x="-322.59241"
       y="196.61278"
       id="text895"><tspan
         sodipodi:role="line"
         id="tspan893"
         x="-322.59241"
         y="196.61278"
         style="font-style:normal;font-variant:normal;font-weight:normal;font-stretch:normal;font-family:'Ashley Script MT Std';-inkscape-font-specification:'Ashley Script MT Std';fill:#ffffff;stroke-width:0.10131802px;">4</tspan></text>
    <rect
       style="opacity:0.04200003;vector-effect:none;fill:#ffffff;fill-opacity:1;stroke:none;stroke-width:0.54236794;stroke-linecap:butt;stroke-linejoin:miter;stroke-miterlimit:4;stroke-dasharray:none;stroke-dashoffset:0;stroke-opacity:0.21100919"
       id="rect899"
       width="8.0653563"
       height="8.0653563"
       x="-104.3919"
       y="351.82535"
       ry="0"
       transform="rotate(45)" />
    <rect
       transform="matrix(0.74800178,0.66369672,-0.74800178,0.66369672,0,0)"
       ry="0"
       y="348.17587"
       x="-83.0989"
       height="7.133101"
       width="7.133101"
       id="rect901"
       style="opacity:1;vector-effect:none;fill:#333333;fill-opacity:1;stroke:none;stroke-width:0.47967696;stroke-linecap:butt;stroke-linejoin:miter;stroke-miterlimit:4;stroke-dasharray:none;stroke-dashoffset:0;stroke-opacity:0.21100919" />
    <text
       id="text905"
       y="184.21028"
       x="-322.59241"
       style="font-style:normal;font-variant:normal;font-weight:normal;font-stretch:normal;font-size:9.72653008px;line-height:2.5329504px;font-family:sans-serif;-inkscape-font-specification:sans-serif;font-variant-ligatures:normal;font-variant-position:normal;font-variant-caps:normal;font-variant-numeric:normal;font-variant-alternates:normal;font-feature-settings:normal;text-indent:0;text-align:center;text-decoration:none;text-decoration-line:none;text-decoration-style:solid;text-decoration-color:#000000;letter-spacing:0px;word-spacing:0px;text-transform:none;writing-mode:lr-tb;direction:ltr;text-orientation:mixed;dominant-baseline:auto;baseline-shift:baseline;text-anchor:middle;white-space:normal;shape-padding:0;opacity:1;vector-effect:none;fill:#ffffff;fill-opacity:1;stroke:none;stroke-width:0.10131802px;stroke-linecap:butt;stroke-linejoin:miter;stroke-miterlimit:4;stroke-dasharray:none;stroke-dashoffset:0;stroke-opacity:1;"
       xml:space="preserve"><tspan
         style="font-style:normal;font-variant:normal;font-weight:normal;font-stretch:normal;font-family:'Ashley Script MT Std';-inkscape-font-specification:'Ashley Script MT Std';fill:#ffffff;stroke-width:0.10131802px;"
         y="184.21028"
         x="-322.59241"
         id="tspan903"
         sodipodi:role="line">5</tspan></text>
    <rect
       transform="rotate(45)"
       ry="0"
       y="343.05545"
       x="-113.1618"
       height="8.0653563"
       width="8.0653563"
       id="rect909"
       style="opacity:0.04200003;vector-effect:none;fill:#ffffff;fill-opacity:1;stroke:none;stroke-width:0.54236794;stroke-linecap:butt;stroke-linejoin:miter;stroke-miterlimit:4;stroke-dasharray:none;stroke-dashoffset:0;stroke-opacity:0.21100919" />
    <rect
       style="opacity:1;vector-effect:none;fill:#333333;fill-opacity:1;stroke:none;stroke-width:0.47967696;stroke-linecap:butt;stroke-linejoin:miter;stroke-miterlimit:4;stroke-dasharray:none;stroke-dashoffset:0;stroke-opacity:0.21100919"
       id="rect911"
       width="7.133101"
       height="7.133101"
       x="-92.442413"
       y="338.83237"
       ry="0"
       transform="matrix(0.74800178,0.66369672,-0.74800178,0.66369672,0,0)" />
    <text
       xml:space="preserve"
       style="font-style:normal;font-variant:normal;font-weight:normal;font-stretch:normal;font-size:9.72653008px;line-height:2.5329504px;font-family:sans-serif;-inkscape-font-specification:sans-serif;font-variant-ligatures:normal;font-variant-position:normal;font-variant-caps:normal;font-variant-numeric:normal;font-variant-alternates:normal;font-feature-settings:normal;text-indent:0;text-align:center;text-decoration:none;text-decoration-line:none;text-decoration-style:solid;text-decoration-color:#000000;letter-spacing:0px;word-spacing:0px;text-transform:none;writing-mode:lr-tb;direction:ltr;text-orientation:mixed;dominant-baseline:auto;baseline-shift:baseline;text-anchor:middle;white-space:normal;shape-padding:0;opacity:1;vector-effect:none;fill:#ffffff;fill-opacity:1;stroke:none;stroke-width:0.10131802px;stroke-linecap:butt;stroke-linejoin:miter;stroke-miterlimit:4;stroke-dasharray:none;stroke-dashoffset:0;stroke-opacity:1;"
       x="-322.59241"
       y="171.80775"
       id="text915"><tspan
         sodipodi:role="line"
         id="tspan913"
         x="-322.59241"
         y="171.80775"
         style="font-style:normal;font-variant:normal;font-weight:normal;font-stretch:normal;font-family:'Ashley Script MT Std';-inkscape-font-specification:'Ashley Script MT Std';fill:#ffffff;stroke-width:0.10131802px;">6</tspan></text>
    <rect
       style="opacity:0.04200003;vector-effect:none;fill:#ffffff;fill-opacity:1;stroke:none;stroke-width:0.54236794;stroke-linecap:butt;stroke-linejoin:miter;stroke-miterlimit:4;stroke-dasharray:none;stroke-dashoffset:0;stroke-opacity:0.21100919"
       id="rect919"
       width="8.0653563"
       height="8.0653563"
       x="-121.93169"
       y="334.28555"
       ry="0"
       transform="rotate(45)" />
    <rect
       transform="matrix(0.74800178,0.66369672,-0.74800178,0.66369672,0,0)"
       ry="0"
       y="329.48886"
       x="-101.78591"
       height="7.133101"
       width="7.133101"
       id="rect921"
       style="opacity:1;vector-effect:none;fill:#333333;fill-opacity:1;stroke:none;stroke-width:0.47967696;stroke-linecap:butt;stroke-linejoin:miter;stroke-miterlimit:4;stroke-dasharray:none;stroke-dashoffset:0;stroke-opacity:0.21100919" />
    <text
       id="text925"
       y="159.40526"
       x="-322.59241"
       style="font-style:normal;font-variant:normal;font-weight:normal;font-stretch:normal;font-size:9.72653008px;line-height:2.5329504px;font-family:sans-serif;-inkscape-font-specification:sans-serif;font-variant-ligatures:normal;font-variant-position:normal;font-variant-caps:normal;font-variant-numeric:normal;font-variant-alternates:normal;font-feature-settings:normal;text-indent:0;text-align:center;text-decoration:none;text-decoration-line:none;text-decoration-style:solid;text-decoration-color:#000000;letter-spacing:0px;word-spacing:0px;text-transform:none;writing-mode:lr-tb;direction:ltr;text-orientation:mixed;dominant-baseline:auto;baseline-shift:baseline;text-anchor:middle;white-space:normal;shape-padding:0;opacity:1;vector-effect:none;fill:#ffffff;fill-opacity:1;stroke:none;stroke-width:0.10131802px;stroke-linecap:butt;stroke-linejoin:miter;stroke-miterlimit:4;stroke-dasharray:none;stroke-dashoffset:0;stroke-opacity:1;"
       xml:space="preserve"><tspan
         style="font-style:normal;font-variant:normal;font-weight:normal;font-stretch:normal;font-family:'Ashley Script MT Std';-inkscape-font-specification:'Ashley Script MT Std';fill:#ffffff;stroke-width:0.10131802px;"
         y="159.40526"
         x="-322.59241"
         id="tspan923"
         sodipodi:role="line">7</tspan></text>
    <rect
       transform="rotate(45)"
       ry="0"
       y="325.51566"
       x="-130.7016"
       height="8.0653563"
       width="8.0653563"
       id="rect929"
       style="opacity:0.04200003;vector-effect:none;fill:#ffffff;fill-opacity:1;stroke:none;stroke-width:0.54236794;stroke-linecap:butt;stroke-linejoin:miter;stroke-miterlimit:4;stroke-dasharray:none;stroke-dashoffset:0;stroke-opacity:0.21100919" />
    <rect
       style="opacity:1;vector-effect:none;fill:#333333;fill-opacity:1;stroke:none;stroke-width:0.47967696;stroke-linecap:butt;stroke-linejoin:miter;stroke-miterlimit:4;stroke-dasharray:none;stroke-dashoffset:0;stroke-opacity:0.21100919"
       id="rect931"
       width="7.133101"
       height="7.133101"
       x="-111.12943"
       y="320.14536"
       ry="0"
       transform="matrix(0.74800178,0.66369672,-0.74800178,0.66369672,0,0)" />
    <text
       xml:space="preserve"
       style="font-style:normal;font-variant:normal;font-weight:normal;font-stretch:normal;font-size:9.72653008px;line-height:2.5329504px;font-family:sans-serif;-inkscape-font-specification:sans-serif;font-variant-ligatures:normal;font-variant-position:normal;font-variant-caps:normal;font-variant-numeric:normal;font-variant-alternates:normal;font-feature-settings:normal;text-indent:0;text-align:center;text-decoration:none;text-decoration-line:none;text-decoration-style:solid;text-decoration-color:#000000;letter-spacing:0px;word-spacing:0px;text-transform:none;writing-mode:lr-tb;direction:ltr;text-orientation:mixed;dominant-baseline:auto;baseline-shift:baseline;text-anchor:middle;white-space:normal;shape-padding:0;opacity:1;vector-effect:none;fill:#ffffff;fill-opacity:1;stroke:none;stroke-width:0.10131802px;stroke-linecap:butt;stroke-linejoin:miter;stroke-miterlimit:4;stroke-dasharray:none;stroke-dashoffset:0;stroke-opacity:1;"
       x="-322.59241"
       y="147.00275"
       id="text935"><tspan
         sodipodi:role="line"
         id="tspan933"
         x="-322.59241"
         y="147.00275"
         style="font-style:normal;font-variant:normal;font-weight:normal;font-stretch:normal;font-family:'Ashley Script MT Std';-inkscape-font-specification:'Ashley Script MT Std';fill:#ffffff;stroke-width:0.10131802px;">8</tspan></text>
    <rect
       style="opacity:0.04200003;vector-effect:none;fill:#ffffff;fill-opacity:1;stroke:none;stroke-width:0.54236794;stroke-linecap:butt;stroke-linejoin:miter;stroke-miterlimit:4;stroke-dasharray:none;stroke-dashoffset:0;stroke-opacity:0.21100919"
       id="rect939"
       width="8.0653563"
       height="8.0653563"
       x="-139.47148"
       y="316.74576"
       ry="0"
       transform="rotate(45)" />
    <rect
       transform="matrix(0.74800178,0.66369672,-0.74800178,0.66369672,0,0)"
       ry="0"
       y="310.80185"
       x="-120.47292"
       height="7.133101"
       width="7.133101"
       id="rect941"
       style="opacity:1;vector-effect:none;fill:#333333;fill-opacity:1;stroke:none;stroke-width:0.47967696;stroke-linecap:butt;stroke-linejoin:miter;stroke-miterlimit:4;stroke-dasharray:none;stroke-dashoffset:0;stroke-opacity:0.21100919" />
    <text
       id="text945"
       y="134.60025"
       x="-322.59241"
       style="font-style:normal;font-variant:normal;font-weight:normal;font-stretch:normal;font-size:9.72653008px;line-height:2.5329504px;font-family:sans-serif;-inkscape-font-specification:sans-serif;font-variant-ligatures:normal;font-variant-position:normal;font-variant-caps:normal;font-variant-numeric:normal;font-variant-alternates:normal;font-feature-settings:normal;text-indent:0;text-align:center;text-decoration:none;text-decoration-line:none;text-decoration-style:solid;text-decoration-color:#000000;letter-spacing:0px;word-spacing:0px;text-transform:none;writing-mode:lr-tb;direction:ltr;text-orientation:mixed;dominant-baseline:auto;baseline-shift:baseline;text-anchor:middle;white-space:normal;shape-padding:0;opacity:1;vector-effect:none;fill:#ffffff;fill-opacity:1;stroke:none;stroke-width:0.10131802px;stroke-linecap:butt;stroke-linejoin:miter;stroke-miterlimit:4;stroke-dasharray:none;stroke-dashoffset:0;stroke-opacity:1;"
       xml:space="preserve"><tspan
         style="font-style:normal;font-variant:normal;font-weight:normal;font-stretch:normal;font-family:'Ashley Script MT Std';-inkscape-font-specification:'Ashley Script MT Std';fill:#ffffff;stroke-width:0.10131802px;"
         y="134.60025"
         x="-322.59241"
         id="tspan943"
         sodipodi:role="line">9</tspan></text>
    <rect
       style="opacity:0.04200003;vector-effect:none;fill:#ffffff;fill-opacity:1;stroke:none;stroke-width:0.54236794;stroke-linecap:butt;stroke-linejoin:miter;stroke-miterlimit:4;stroke-dasharray:none;stroke-dashoffset:0;stroke-opacity:0.21100919"
       id="rect989"
       width="8.0653563"
       height="8.0653563"
       x="-82.291473"
       y="417.42389"
       ry="0"
       transform="rotate(45)"
       inkscape:export-xdpi="285.03958"
       inkscape:export-ydpi="285.03958" />
    <rect
       transform="matrix(0.74800178,0.66369672,-0.74800178,0.66369672,0,0)"
       ry="0"
       y="415.4534"
       x="-56.941364"
       height="7.133101"
       width="7.133101"
       id="rect991"
       style="opacity:1;vector-effect:none;fill:#333333;fill-opacity:1;stroke:none;stroke-width:0.47967696;stroke-linecap:butt;stroke-linejoin:miter;stroke-miterlimit:4;stroke-dasharray:none;stroke-dashoffset:0;stroke-opacity:0.21100919"
       inkscape:export-xdpi="285.03958"
       inkscape:export-ydpi="285.03958" />
  </g>
</svg>
